%YAML 1.1
%TAG !u! tag:unity3d.com,2011:
--- !u!74 &7400000
AnimationClip:
  m_ObjectHideFlags: 0
  m_PrefabParentObject: {fileID: 0}
  m_PrefabInternal: {fileID: 0}
  m_Name: Attack4
  serializedVersion: 6
  m_Legacy: 0
  m_Compressed: 0
  m_UseHighQualityCurve: 1
  m_RotationCurves: []
  m_CompressedRotationCurves: []
  m_EulerCurves: []
  m_PositionCurves: []
  m_ScaleCurves: []
  m_FloatCurves: []
  m_PPtrCurves:
  - curve:
    - time: 0
      value: {fileID: 21300000, guid: 439a0c4be7fb0ad4bb4b34540956e6c4, type: 3}
    - time: 0.1
      value: {fileID: 21300000, guid: 888df2d7e77ff014eb7e2e5a584509e7, type: 3}
    - time: 0.2
      value: {fileID: 21300000, guid: 4c12503aa99ad2f4eb1a205e92eea7ac, type: 3}
    - time: 0.3
      value: {fileID: 21300000, guid: 1c5782748a4a21a45ae0786bdfc1e96d, type: 3}
    - time: 0.4
      value: {fileID: 21300000, guid: 2cf935569af94be458ce54d092b99d6d, type: 3}
    - time: 0.5
      value: {fileID: 21300000, guid: 0138e4b7f10a7d94ab16b2d7051c4f16, type: 3}
    - time: 0.6
      value: {fileID: 21300000, guid: 4d4591b8d8fde744fac7b9dad43820eb, type: 3}
    attribute: m_Sprite
    path: 
    classID: 212
    script: {fileID: 0}
  m_SampleRate: 10
  m_WrapMode: 0
  m_Bounds:
    m_Center: {x: 0, y: 0, z: 0}
    m_Extent: {x: 0, y: 0, z: 0}
  m_ClipBindingConstant:
    genericBindings:
    - serializedVersion: 2
      path: 0
      attribute: 0
      script: {fileID: 0}
      typeID: 212
      customType: 23
      isPPtrCurve: 1
    pptrCurveMapping:
    - {fileID: 21300000, guid: 439a0c4be7fb0ad4bb4b34540956e6c4, type: 3}
    - {fileID: 21300000, guid: 888df2d7e77ff014eb7e2e5a584509e7, type: 3}
    - {fileID: 21300000, guid: 4c12503aa99ad2f4eb1a205e92eea7ac, type: 3}
    - {fileID: 21300000, guid: 1c5782748a4a21a45ae0786bdfc1e96d, type: 3}
    - {fileID: 21300000, guid: 2cf935569af94be458ce54d092b99d6d, type: 3}
    - {fileID: 21300000, guid: 0138e4b7f10a7d94ab16b2d7051c4f16, type: 3}
    - {fileID: 21300000, guid: 4d4591b8d8fde744fac7b9dad43820eb, type: 3}
  m_AnimationClipSettings:
    serializedVersion: 2
    m_AdditiveReferencePoseClip: {fileID: 0}
    m_AdditiveReferencePoseTime: 0
    m_StartTime: 0
    m_StopTime: 0.70000005
    m_OrientationOffsetY: 0
    m_Level: 0
    m_CycleOffset: 0
    m_HasAdditiveReferencePose: 0
    m_LoopTime: 0
    m_LoopBlend: 0
    m_LoopBlendOrientation: 0
    m_LoopBlendPositionY: 0
    m_LoopBlendPositionXZ: 0
    m_KeepOriginalOrientation: 0
    m_KeepOriginalPositionY: 1
    m_KeepOriginalPositionXZ: 0
    m_HeightFromFeet: 0
    m_Mirror: 0
  m_EditorCurves: []
  m_EulerEditorCurves: []
  m_HasGenericRootTransform: 0
  m_HasMotionFloatCurves: 0
  m_GenerateMotionCurves: 0
  m_Events: []
