%YAML 1.1
%TAG !u! tag:unity3d.com,2011:
--- !u!74 &7400000
AnimationClip:
  m_ObjectHideFlags: 0
  m_PrefabParentObject: {fileID: 0}
  m_PrefabInternal: {fileID: 0}
  m_Name: RangeNinjaDie
  serializedVersion: 6
  m_Legacy: 0
  m_Compressed: 0
  m_UseHighQualityCurve: 1
  m_RotationCurves: []
  m_CompressedRotationCurves: []
  m_EulerCurves: []
  m_PositionCurves: []
  m_ScaleCurves: []
  m_FloatCurves: []
  m_PPtrCurves:
  - curve:
    - time: 0
      value: {fileID: 21300000, guid: d24bbbf05a49c422987eb0e9d882b7ae, type: 3}
    - time: 0.1
      value: {fileID: 21300000, guid: 6bcc3785ed2a7441b984cbe6698c48f5, type: 3}
    - time: 0.2
      value: {fileID: 21300000, guid: 57bc2f1b4744c479f9b778758ff5ffd2, type: 3}
    - time: 0.3
      value: {fileID: 21300000, guid: e576b4b14a7374cb38a3e40a54f4b08c, type: 3}
    - time: 0.4
      value: {fileID: 21300000, guid: d2a0de688fb2545c6bec4f79e97d5518, type: 3}
    - time: 0.5
      value: {fileID: 21300000, guid: 86412cc9d18c6427aa09b66b8eaa4bcc, type: 3}
    attribute: m_Sprite
    path: 
    classID: 212
    script: {fileID: 0}
  m_SampleRate: 10
  m_WrapMode: 0
  m_Bounds:
    m_Center: {x: 0, y: 0, z: 0}
    m_Extent: {x: 0, y: 0, z: 0}
  m_ClipBindingConstant:
    genericBindings:
    - serializedVersion: 2
      path: 0
      attribute: 0
      script: {fileID: 0}
      typeID: 212
      customType: 23
      isPPtrCurve: 1
    pptrCurveMapping:
    - {fileID: 21300000, guid: d24bbbf05a49c422987eb0e9d882b7ae, type: 3}
    - {fileID: 21300000, guid: 6bcc3785ed2a7441b984cbe6698c48f5, type: 3}
    - {fileID: 21300000, guid: 57bc2f1b4744c479f9b778758ff5ffd2, type: 3}
    - {fileID: 21300000, guid: e576b4b14a7374cb38a3e40a54f4b08c, type: 3}
    - {fileID: 21300000, guid: d2a0de688fb2545c6bec4f79e97d5518, type: 3}
    - {fileID: 21300000, guid: 86412cc9d18c6427aa09b66b8eaa4bcc, type: 3}
  m_AnimationClipSettings:
    serializedVersion: 2
    m_AdditiveReferencePoseClip: {fileID: 0}
    m_AdditiveReferencePoseTime: 0
    m_StartTime: 0
    m_StopTime: 0.6
    m_OrientationOffsetY: 0
    m_Level: 0
    m_CycleOffset: 0
    m_HasAdditiveReferencePose: 0
    m_LoopTime: 0
    m_LoopBlend: 0
    m_LoopBlendOrientation: 0
    m_LoopBlendPositionY: 0
    m_LoopBlendPositionXZ: 0
    m_KeepOriginalOrientation: 0
    m_KeepOriginalPositionY: 1
    m_KeepOriginalPositionXZ: 0
    m_HeightFromFeet: 0
    m_Mirror: 0
  m_EditorCurves: []
  m_EulerEditorCurves: []
  m_HasGenericRootTransform: 0
  m_HasMotionFloatCurves: 0
  m_GenerateMotionCurves: 0
  m_Events: []
